{
   "count":2945,
   "next":"?page=2",
   "prev":"None",
   "results":[
      {
         "country":"US",
         "created_at":"2019-08-22T15:13:06Z",
         "email":"thepod14@hotmail.com",
         "first_name":"Labruzzo",
         "id":3083017,
         "last_name":"Joe",
         "location":"NY, US",
         "name":"Labruzzo Joe",
         "num_orders":2,
         "num_subscriptions":1,
         "status":"None",
         "subscription_status":"cancelled",
         "total_revenue":5319,
         "type":"customer",
         "url":"/v1/customers/3083017/"
      },
      {
         "country":"US",
         "created_at":"2018-10-28T07:49:33Z",
         "email":"lwdsspruce@aol.com",
         "first_name":"Deidre",
         "id":17411844,
         "last_name":"Spruce",
         "location":"NJ, US",
         "name":"Deidre Spruce",
         "num_orders":2,
         "num_subscriptions":1,
         "status":"None",
         "subscription_status":"cancelled",
         "total_revenue":5039,
         "type":"customer",
         "url":"/v1/customers/17411844/"
      },
      {
         "country":"US",
         "created_at":"2016-03-26T05:35:38Z",
         "email":"photosfortheliving@gmail.com",
         "first_name":"Amber",
         "id":17778684,
         "last_name":"Golightly",
         "location":"TX, US",
         "name":"Amber Golightly",
         "num_orders":1,
         "num_subscriptions":1,
         "status":"None",
         "subscription_status":"cancelled",
         "total_revenue":2400,
         "type":"customer",
         "url":"/v1/customers/17778684/"
      },
      {
         "country":"US",
         "created_at":"2023-04-02T05:06:49Z",
         "email":"mwindham64@yahoo.com",
         "first_name":"Michelle",
         "id":18475997,
         "last_name":"Windham",
         "location":"TX, US",
         "name":"Michelle Windham",
         "num_orders":6,
         "num_subscriptions":1,
         "status":"None",
         "subscription_status":"cancelled",
         "total_revenue":27730,
         "type":"customer",
         "url":"/v1/customers/18475997/"
      },
      {
         "country":"CA",
         "created_at":"2016-12-07T07:47:56Z",
         "email":"tamaraashlie@hotmail.com",
         "first_name":"Tamara",
         "id":21231823,
         "last_name":"Dykstra",
         "location":"MB, CA",
         "name":"Tamara Dykstra",
         "num_orders":8,
         "num_subscriptions":1,
         "status":"None",
         "subscription_status":"cancelled",
         "total_revenue":18720,
         "type":"customer",
         "url":"/v1/customers/21231823/"
      },
      {
         "country":"US",
         "created_at":"2020-11-23T15:17:56Z",
         "email":"cloudy_daze6@hotmail.com",
         "first_name":"Lindsay",
         "id":21862343,
         "last_name":"Tutwiler",
         "location":"VA, US",
         "name":"Lindsay Tutwiler",
         "num_orders":2,
         "num_subscriptions":1,
         "status":"None",
         "subscription_status":"cancelled",
         "total_revenue":16648,
         "type":"customer",
         "url":"/v1/customers/21862343/"
      },
      {
         "country":"US",
         "created_at":"2018-12-20T20:53:54Z",
         "email":"jehzavere@gmail.com",
         "first_name":"Jessica",
         "id":21925296,
         "last_name":"Halbhuber",
         "location":"CO, US",
         "name":"Jessica Halbhuber",
         "num_orders":9,
         "num_subscriptions":1,
         "status":"None",
         "subscription_status":"cancelled",
         "total_revenue":40455,
         "type":"customer",
         "url":"/v1/customers/21925296/"
      },
      {
         "country":"US",
         "created_at":"2020-06-01T13:42:49Z",
         "email":"gmoonlady@gmail.com",
         "first_name":"Amanda",
         "id":21945818,
         "last_name":"Walz",
         "location":"ME, US",
         "name":"Amanda Walz",
         "num_orders":2,
         "num_subscriptions":1,
         "status":"None",
         "subscription_status":"cancelled",
         "total_revenue":5998,
         "type":"customer",
         "url":"/v1/customers/21945818/"
      },
      {
         "country":"CA",
         "created_at":"2019-05-24T09:45:00Z",
         "email":"tyhippern@gmail.com",
         "first_name":"Terren",
         "id":22491544,
         "last_name":"Hippern",
         "location":"NS, CA",
         "name":"Terren Hippern",
         "note":"New month to month subscription set up https://my.cratejoy.com/subscription/2269371820 so customer can receive Contemporary instead of swept away for the next 5 boxes of this prepaid order. ( July, August, Sept, Oct, Nov)",
         "num_orders":3,
         "num_subscriptions":2,
         "status":"None",
         "subscription_status":"cancelled",
         "total_revenue":31986,
         "type":"customer",
         "url":"/v1/customers/22491544/"
      },
      {
         "country":"US",
         "created_at":"2017-11-27T18:02:24Z",
         "email":"eli8420@yahoo.com",
         "first_name":"Danielle",
         "id":24348933,
         "last_name":"Lee",
         "location":"FL, US",
         "name":"Danielle Lee",
         "num_orders":1,
         "num_subscriptions":1,
         "status":"None",
         "subscription_status":"cancelled",
         "total_revenue":1800,
         "type":"customer",
         "url":"/v1/customers/24348933/"
      }
   ]
}